{
   "status":1,
   "stats":[
      {
         "slice":{
            "year":2017,
            "month":5,
            "day":31,
            "hour":0
         },
         "traffic":{
            "raw":"0",
            "uniq":"0"
         },
         "actions":{
            "total":{
               "revenue":0,
               "charge":0,
               "earning":0,
               "null":0,
               "count":0
            },
            "confirmed":{
               "revenue":0,
               "charge":0,
               "earning":0,
               "null":0,
               "count":0
            },
            "pending":{
               "revenue":0,
               "charge":0,
               "earning":0,
               "null":0,
               "count":0
            },
            "declined":{
               "revenue":0,
               "charge":0,
               "earning":0,
               "null":0,
               "count":0
            },
            "not_found":{
               "revenue":0,
               "charge":0,
               "earning":0,
               "null":0,
               "count":0
            },
            "hold":{
               "revenue":0,
               "charge":0,
               "earning":0,
               "null":0,
               "count":0
            }
         }
      }
   ],
   "pagination":{
      "per_page":1,
      "total_count":24,
      "page":1,
      "next_page":2
   }
}
